AD2Oscillascope60secrec.csv

#Digilent WaveForms Oscilloscope Acquisition
#Device Name: Discovery2
#Serial Number: SN:210321B5DA9C
#Date Time: 2025-03-02 14:43:30.767
#Sample rate: 1.2987e+06Hz
#Samples: 8192
#Trigger: Source: Channel 1 Type: Edge Condition: Rising Level: 0 V Hyst.: Auto HoldOff: 0 s
#Channel 1: Range: 50 mV/div Offset: 20 mV Sample Mode: Average

Time (s),Channel 1 (V)
-0.004417969268668206,-5.803957539713203e-05
-0.004417199268668206,-5.803957539834905e-05
-0.004416429268668207,-0.001396166126563169
-0.004415659268668206,-5.803957539713203e-05
-0.004414889268668207,0.0002764920623945302
-0.004414119268668207,-5.803957539697992e-05
-0.004413349268668206,-0.0003925712131883379
-0.004412579268668206,0.0006110237001861925
-0.004411809268668207,0.0002764920623946823
-0.004411039268668206,0.001280086975768753
-0.004410269268668206,-0.0003925712131887943
-0.004409499268668206,-0.0003925712131887943
-0.004408729268668206,0.001280086975768296
-0.004407959268668207,-5.803957539652358e-05
-0.004407189268668206,0.0002764920623945302
-0.004406419268668207,0.0006110237001861925
-0.004405649268668207,-5.80395753968278e-05
-0.004404879268668206,-5.803957539713203e-05
-0.004404109268668206,-5.803957539713203e-05
-0.004403339268668207,0.0002764920623943781
-0.004402569268668206,0.0006110237001857361
-0.004401799268668206,-0.0003925712131886422
-0.004401029268668206,-5.803957539713203e-05
-0.004400259268668206,0.0006110237001855839
-0.004399489268668207,-5.80395753968278e-05
-0.004398719268668206,0.0002764920623945302
-0.004397949268668207,-5.803957539713203e-05
-0.004397179268668207,-0.0003925712131886422
-0.004396409268668206,-5.803957539682778e-05
-0.004395639268668206,0.0006110237001861925
-0.004394869268668207,-0.0003925712131883378
-0.004394099268668206,-0.0003925712131887943
-0.004393329268668206,-0.0003925712131883379
-0.004392559268668206,0.0006110237001861925
-0.004391789268668206,-0.0003925712131878815
-0.004391019268668207,0.000611023700185736
-0.004390249268668206,0.0009455553379778513
-0.004389479268668207,0.0006110237001861925
-0.004388709268668207,0.001280086975769209
-0.004387939268668206,0.0002764920623943781
-0.004387169268668206,-5.803957539713203e-05
-0.004386399268668207,0.0002764920623943781
-0.004385629268668206,-5.803957539652352e-05
-0.004384859268668206,0.001280086975769209
-0.004384089268668206,0.0006110237001861925
-0.004383319268668206,-0.0003925712131887943
-0.004382549268668207,-0.0003925712131887943
-0.004381779268668206,-0.0007271028509804531
-0.004381009268668207,-0.0003925712131887943
-0.004380239268668207,0.001280086975768753
-0.004379469268668206,0.0006110237001860404
-0.004378699268668206,0.0002764920623945302
-0.004377929268668207,-5.803957539697992e-05
-0.004377159268668206,0.000945555337977547
-0.004376389268668206,0.0002764920623945302
-0.004375619268668206,0.0002764920623945302
-0.004374849268668206,-5.803957539713203e-05
-0.004374079268668207,-5.803957539713203e-05
-0.004373309268668206,0.0006110237001861925
-0.004372539268668207,0.0002764920623945302
-0.004371769268668207,0.0002764920623945302
-0.004370999268668206,-5.803957539682778e-05
-0.004370229268668206,0.0006110237001861925
-0.004369459268668207,-0.0003925712131883378
-0.004368689268668206,-5.803957539713203e-05
-0.004367919268668206,-5.803957539713203e-05
-0.004367149268668206,-5.803957539713203e-05
-0.004366379268668206,0.0009455553379772427
-0.004365609268668207,0.0002764920623948345
-0.004364839268668206,0.0002764920623945302
-0.004364069268668207,0.0002764920623945302
-0.004363299268668207,-5.803957539697992e-05
-0.004362529268668206,0.0002764920623945302
-0.004361759268668206,0.0002764920623945302
-0.004360989268668207,0.0002764920623945302
-0.004360219268668206,0.0009455553379772427
-0.004359449268668207,-0.0003925712131875772
-0.004358679268668206,0.0002764920623945302
-0.004357909268668206,0.0006110237001855839
-0.004357139268668207,-5.80395753968278e-05
-0.004356369268668206,-5.803957539713203e-05
-0.004355599268668207,-5.803957539713203e-05
-0.004354829268668207,-0.0003925712131886422
-0.004354059268668206,0.0009455553379780034
-0.004353289268668206,0.001280086975769514
-0.004352519268668207,0.0006110237001861925
-0.004351749268668206,0.0006110237001858883
-0.004350979268668207,-5.803957539652347e-05
-0.004350209268668206,0.0006110237001861925
-0.004349439268668206,0.0002764920623942259
-0.004348669268668207,-5.803957539697992e-05
-0.004347899268668206,0.0009455553379778513
-0.004347129268668207,0.0002764920623945302
-0.004346359268668207,0.0002764920623945302
-0.004345589268668206,-5.803957539713203e-05
-0.004344819268668206,-5.803957539713203e-05
-0.004344049268668207,0.0006110237001861925
-0.004343279268668206,0.0002764920623945302
-0.004342509268668207,0.0002764920623945302
-0.004341739268668206,0.001280086975769514
-0.004340969268668206,0.0002764920623942259
-0.004340199268668207,-5.803957539697992e-05
-0.004339429268668206,0.0002764920623945302
-0.004338659268668207,0.0009455553379778513
-0.004337889268668207,-5.803957539667558e-05
-0.004337119268668206,0.0009455553379773949
-0.004336349268668206,-5.803957539713203e-05
-0.004335579268668207,0.0006110237001861925
-0.004334809268668206,0.0002764920623945302
-0.004334039268668207,0.0002764920623945302
-0.004333269268668206,0.001280086975769514
-0.004332499268668206,0.0009455553379772427
-0.004331729268668207,0.0002764920623948345
-0.004330959268668206,-0.0007271028509804531
-0.004330189268668207,0.001280086975769514
-0.004329419268668207,0.001280086975769514
-0.004328649268668206,0.0006110237001860404
-0.004327879268668206,0.0002764920623945302
-0.004327109268668207,0.0002764920623945302
-0.004326339268668206,0.0006110237001863446
-0.004325569268668207,0.000945555337977547
-0.004324799268668206,0.0002764920623945302
-0.004324029268668206,0.0006110237001846712
-0.004323259268668207,-0.001061634488771355
-0.004322489268668206,0.0006110237001861925
-0.004321719268668207,0.0009455553379778513
-0.004320949268668207,0.001280086975769361
-0.004320179268668206,0.002283681889144192
-0.004319409268668206,0.001614618613561176
-0.004318639268668207,0.001280086975769514
-0.004317869268668206,0.0006110237001857361
-0.004317099268668207,-0.0003925712131878816
-0.004316329268668206,-5.803957539713203e-05
-0.004315559268668206,0.0002764920623945302
-0.004314789268668207,0.0002764920623945302
-0.004314019268668206,0.0006110237001861925
-0.004313249268668207,-0.0003925712131887943
-0.004312479268668207,-5.803957539728415e-05
-0.004311709268668206,0.0002764920623945302
-0.004310939268668206,0.0002764920623945302
-0.004310169268668207,0.0002764920623945302
-0.004309399268668206,0.0006110237001863446
-0.004308629268668207,0.000945555337977547
-0.004307859268668206,0.0006110237001861925
-0.004307089268668206,0.0006110237001864967
-0.004306319268668207,0.0009455553379776992
-0.004305549268668206,0.0009455553379778513
-0.004304779268668207,-0.0003925712131887943
-0.004304009268668207,0.0009455553379772428
-0.004303239268668206,-5.803957539758841e-05
-0.004302469268668206,-0.001061634488772115
-0.004301699268668207,-0.0003925712131887943
-0.004300929268668206,-0.0003925712131883379
-0.004300159268668207,0.0006110237001852798
-0.004299389268668206,0.0006110237001861925
-0.004298619268668207,0.001280086975769209
-0.004297849268668207,0.0006110237001864967
-0.004297079268668206,-5.803957539667565e-05
-0.004296309268668206,0.0009455553379778513
-0.004295539268668207,0.0009455553379778513
-0.004294769268668206,0.0002764920623951387
-0.004293999268668206,0.001614618613561176
-0.004293229268668207,0.0002764920623945302
-0.004292459268668206,0.0002764920623949866
-0.004291689268668207,0.001280086975768601
-0.004290919268668206,0.0002764920623945302
-0.004290149268668207,0.0002764920623945302
-0.004289379268668207,0.0002764920623945302
-0.004288609268668206,0.0006110237001861925
-0.004287839268668206,0.0006110237001861925
-0.004287069268668207,-0.0003925712131883378
-0.004286299268668206,0.0009455553379773949
-0.004285529268668206,-5.803957539713203e-05
-0.004284759268668207,-0.001061634488772115
-0.004283989268668206,-5.803957539743629e-05
-0.004283219268668207,-0.0007271028509798445
-0.004282449268668206,0.0009455553379778513
-0.004281679268668207,0.0009455553379778513
-0.004280909268668207,0.001280086975769361
-0.004280139268668206,0.0002764920623945302
-0.004279369268668206,0.0002764920623945302
-0.004278599268668207,-5.803957539697992e-05
-0.004277829268668206,0.0006110237001861925
-0.004277059268668206,0.0006110237001861925
-0.004276289268668207,0.0009455553379778513
-0.004275519268668206,0.0009455553379773949
-0.004274749268668207,-5.803957539621935e-05
-0.004273979268668206,-5.803957539713203e-05
-0.004273209268668207,-0.0007271028509801488
-0.004272439268668207,0.0009455553379770906
-0.004271669268668206,0.0002764920623943781
-0.004270899268668206,-5.803957539713203e-05
-0.004270129268668207,0.0002764920623943781
-0.004269359268668206,-0.0003925712131881858
-0.004268589268668206,0.0009455553379778513
-0.004267819268668207,0.001949150251352835
-0.004267049268668206,0.0002764920623945302
-0.004266279268668207,0.0002764920623945302
-0.004265509268668206,0.0002764920623945302
-0.004264739268668207,-5.803957539697992e-05
-0.004263969268668207,-5.803957539713203e-05
-0.004263199268668206,-0.0003925712131881858
-0.004262429268668206,0.0009455553379778513
-0.004261659268668207,0.0009455553379778513
-0.004260889268668206,0.001949150251352226
-0.004260119268668206,0.0006110237001861925
-0.004259349268668207,-0.0003925712131887943
-0.004258579268668206,0.0002764920623943781
-0.004257809268668207,-5.803957539682775e-05
-0.004257039268668206,-5.803957539713203e-05
-0.004256269268668207,-0.0003925712131886422
-0.004255499268668207,-5.803957539728415e-05
-0.004254729268668206,-5.803957539728416e-05
-0.004253959268668206,-0.0003925712131887943
-0.004253189268668207,-0.000727102850980301
-0.004252419268668206,0.0006110237001858883
-0.004251649268668206,-5.803957539713203e-05
-0.004250879268668207,-5.803957539713203e-05
-0.004250109268668206,0.001280086975769361
-0.004249339268668207,0.0009455553379781555
-0.004248569268668206,-5.803957539713203e-05
-0.004247799268668207,0.0009455553379773948
-0.004247029268668207,0.0002764920623948345
-0.004246259268668206,0.0009455553379776992
-0.004245489268668206,0.0006110237001861925
-0.004244719268668207,-0.0007271028509798446
-0.004243949268668206,-0.0003925712131886422
-0.004243179268668206,-5.803957539713203e-05
-0.004242409268668207,0.0006110237001861925
-0.004241639268668206,0.0002764920623942259
-0.004240869268668207,-5.803957539682775e-05
-0.004240099268668206,0.0006110237001861925
-0.004239329268668207,0.0006110237001861925
-0.004238559268668207,0.0002764920623946823
-0.004237789268668206,0.0006110237001857361
-0.004237019268668206,-0.0003925712131887943
-0.004236249268668207,-5.803957539728415e-05
-0.004235479268668206,0.0006110237001863446
-0.004234709268668206,0.0009455553379778513
-0.004233939268668207,0.0002764920623945302
-0.004233169268668206,0.001280086975768601
-0.004232399268668207,0.0002764920623954429
-0.004231629268668206,-5.803957539713203e-05
-0.004230859268668207,-0.0007271028509801488
-0.004230089268668207,-0.0003925712131889464
-0.004229319268668206,0.0009455553379776992
-0.004228549268668206,0.0006110237001861925
-0.004227779268668207,0.0002764920623946823
-0.004227009268668206,-5.803957539728416e-05
-0.004226239268668206,-0.0003925712131887943
-0.004225469268668207,-5.803957539713203e-05
-0.004224699268668206,0.0002764920623945302
-0.004223929268668207,0.0002764920623945302
-0.004223159268668206,0.0009455553379778513
-0.004222389268668207,0.0002764920623945302
-0.004221619268668207,0.0002764920623945302
-0.004220849268668206,0.0006110237001860404
-0.004220079268668206,0.0002764920623945302
-0.004219309268668207,0.000945555337977547
-0.004218539268668206,-0.0003925712131887943
-0.004217769268668206,-0.0003925712131887943
-0.004216999268668207,-5.803957539713203e-05
-0.004216229268668206,0.0009455553379769385
-0.004215459268668207,-5.803957539621935e-05
-0.004214689268668206,0.0009455553379778513
-0.004213919268668207,0.0009455553379778513
-0.004213149268668207,0.0002764920623948345
-0.004212379268668206,0.0002764920623943781
-0.004211609268668206,-5.803957539713203e-05
-0.004210839268668207,0.0009455553379773948
-0.004210069268668206,-0.0003925712131886422
-0.004209299268668206,-5.803957539713203e-05
-0.004208529268668207,0.0006110237001861925
-0.004207759268668206,-0.000392571213187273
-0.004206989268668207,0.001280086975767992
-0.004206219268668206,-5.803957539713203e-05
-0.004205449268668207,0.0006110237001861925
-0.004204679268668207,-0.0003925712131883378
-0.004203909268668206,-5.80395753969799e-05
-0.004203139268668206,0.0002764920623945302
-0.004202369268668207,0.0002764920623945302
-0.004201599268668206,0.0002764920623946823
-0.004200829268668206,0.0006110237001861925
-0.004200059268668207,0.0006110237001861925
-0.004199289268668206,-5.803957539713203e-05
-0.004198519268668207,-5.803957539713203e-05
-0.004197749268668206,-5.803957539713203e-05
-0.004196979268668207,0.0006110237001861925
-0.004196209268668207,0.0006110237001861925
-0.004195439268668206,0.0009455553379776992
-0.004194669268668206,0.0006110237001861925
-0.004193899268668207,0.0009455553379776992
-0.004193129268668206,0.001280086975769209
-0.004192359268668206,0.0006110237001861925
-0.004191589268668207,-0.0007271028509804531
-0.004190819268668206,-0.0007271028509798445
-0.004190049268668207,-5.803957539774059e-05
-0.004189279268668206,0.0002764920623945302
-0.004188509268668207,0.0002764920623945302
-0.004187739268668207,-5.803957539697992e-05
-0.004186969268668206,0.0002764920623943781
-0.004186199268668206,-5.803957539713203e-05
-0.004185429268668207,-5.803957539713203e-05
-0.004184659268668206,0.0006110237001863446
-0.004183889268668206,0.0009455553379778513
-0.004183119268668207,-0.0003925712131887943
-0.004182349268668206,0.000276492062395443
-0.004181579268668207,0.001280086975768601
-0.004180809268668206,0.0002764920623945302
-0.004180039268668207,-5.803957539713203e-05
-0.004179269268668207,0.0006110237001858883
-0.004178499268668206,0.001280086975768905
-0.004177729268668206,-5.803957539713203e-05
-0.004176959268668207,-5.803957539713203e-05
-0.004176189268668206,-5.803957539713203e-05
-0.004175419268668206,-5.803957539713203e-05
-0.004174649268668207,-0.0003925712131887943
-0.004173879268668206,0.0002764920623945302
-0.004173109268668207,0.0002764920623945302
-0.004172339268668206,0.0006110237001861925
-0.004171569268668207,-5.803957539713203e-05
-0.004170799268668207,0.0006110237001858883
-0.004170029268668206,0.0006110237001860404
-0.004169259268668206,0.0002764920623945302
-0.004168489268668207,0.0002764920623945302
-0.004167719268668206,0.0009455553379770906
-0.004166949268668206,-0.0007271028509804531
-0.004166179268668206,-0.0007271028509804531
-0.004165409268668206,0.0002764920623945302
-0.004164639268668207,0.0002764920623945302
-0.004163869268668206,0.0009455553379778513
-0.004163099268668207,0.0006110237001861925
-0.004162329268668207,-0.0003925712131883378
-0.004161559268668206,0.0009455553379773949
-0.004160789268668206,-5.803957539713203e-05
-0.004160019268668207,0.0006110237001858883
-0.004159249268668206,-5.803957539728416e-05
-0.004158479268668206,-0.00039257121318849
-0.004157709268668206,0.0002764920623945302
-0.004156939268668206,0.0002764920623945302
-0.004156169268668207,0.0002764920623945302
-0.004155399268668206,0.0009455553379778513
-0.004154629268668207,-5.803957539713203e-05
-0.004153859268668207,0.0002764920623943781
-0.004153089268668206,-0.0003925712131886422
-0.004152319268668206,-5.803957539713203e-05
-0.004151549268668207,-0.0003925712131886422
-0.004150779268668206,0.0006110237001860404
-0.004150009268668206,0.0002764920623943781
-0.004149239268668206,-5.803957539713203e-05
-0.004148469268668206,0.0006110237001858883
-0.004147699268668207,0.0002764920623946823
-0.004146929268668206,-0.0003925712131887943
-0.004146159268668207,-5.803957539713203e-05
-0.004145389268668207,0.0002764920623943781
-0.004144619268668206,0.0002764920623948345
-0.004143849268668206,0.0009455553379778513
-0.004143079268668207,0.0002764920623948345
-0.004142309268668206,0.0006110237001860404
-0.004141539268668206,0.0002764920623943781
-0.004140769268668206,-5.803957539713203e-05
-0.004139999268668206,-5.803957539713203e-05
-0.004139229268668207,-5.803957539713203e-05
-0.004138459268668206,-5.803957539713203e-05
-0.004137689268668207,0.0009455553379778513
-0.004136919268668207,0.0006110237001863446
-0.004136149268668206,-0.0003925712131886422
-0.004135379268668206,-5.803957539713203e-05
-0.004134609268668207,0.0002764920623943781
-0.004133839268668206,0.0002764920623942259
-0.004133069268668206,-0.00039257121318849
-0.004132299268668206,0.0002764920623945302
-0.004131529268668206,0.0002764920623951387
-0.004130759268668207,0.000945555337977547
-0.004129989268668206,-5.803957539713203e-05
-0.004129219268668207,0.0006110237001861925
-0.004128449268668207,0.001614618613560719
-0.004127679268668206,0.000945555337977547
-0.004126909268668206,0.0002764920623945302
-0.004126139268668207,0.0006110237001860404
-0.004125369268668206,0.0002764920623940738
-0.004124599268668206,-0.0007271028509801488
-0.004123829268668206,-5.803957539713203e-05
-0.004123059268668206,0.0006110237001858883
-0.004122289268668207,0.0002764920623946823
-0.004121519268668206,-5.803957539713203e-05
-0.004120749268668207,0.0002764920623945302
-0.004119979268668207,-5.803957539697992e-05
-0.004119209268668206,0.0006110237001866488
-0.004118439268668206,0.001614618613561176
-0.004117669268668207,0.001280086975769666
-0.004116899268668206,0.0006110237001863446
-0.004116129268668206,0.0009455553379772427
-0.004115359268668206,-0.0003925712131887943
-0.004114589268668206,0.0002764920623936174
-0.004113819268668207,-0.0007271028509799966
-0.004113049268668206,0.0006110237001861925
-0.004112279268668207,0.0006110237001861925
-0.004111509268668207,0.0002764920623946823
-0.004110739268668206,0.0009455553379773949
-0.004109969268668206,-5.803957539713203e-05
-0.004109199268668207,0.0009455553379773948
-0.004108429268668206,-0.000727102850980301
-0.004107659268668206,-0.0003925712131889464
-0.004106889268668206,-0.0007271028509804531
-0.004106119268668206,0.0009455553379769385
-0.004105349268668207,-5.803957539667558e-05
-0.004104579268668206,0.001280086975769514
-0.004103809268668207,0.0002764920623945302
-0.004103039268668207,0.0006110237001860404
-0.004102269268668206,-0.0007271028509801488
-0.004101499268668206,-5.803957539713203e-05
-0.004100729268668207,-0.0003925712131886422
-0.004099959268668206,-5.80395753969799e-05
-0.004099189268668206,0.0002764920623943781
-0.004098419268668206,-5.803957539713203e-05
-0.004097649268668206,0.0009455553379781555
-0.004096879268668207,0.001280086975769361
-0.004096109268668206,0.0009455553379778513
-0.004095339268668207,0.001280086975769514
-0.004094569268668207,0.0002764920623949867
-0.004093799268668206,0.0002764920623945302
-0.004093029268668206,0.0002764920623945302
-0.004092259268668207,0.001280086975769514
-0.004091489268668206,0.0006110237001858883
-0.004090719268668207,-5.803957539652347e-05
-0.004089949268668206,-0.0003925712131887943
-0.004089179268668206,-5.803957539743629e-05
-0.004088409268668207,-0.0003925712131886422
-0.004087639268668206,-5.803957539713203e-05
-0.004086869268668207,-5.803957539713203e-05
-0.004086099268668207,-5.803957539713203e-05
-0.004085329268668206,-5.803957539682778e-05
-0.004084559268668206,0.0006110237001861925
-0.004083789268668207,0.0006110237001861925
-0.004083019268668206,-5.803957539713203e-05
-0.004082249268668207,-5.803957539713203e-05
-0.004081479268668206,-5.803957539713203e-05
-0.004080709268668206,-0.0003925712131887943
-0.004079939268668207,-0.0003925712131887943
-0.004079169268668206,-0.0003925712131887943
-0.004078399268668207,0.0006110237001861925
-0.004077629268668207,0.0009455553379776992
